\relax 
\select@language{croatian}
\@writefile{toc}{\select@language{croatian}}
\@writefile{lof}{\select@language{croatian}}
\@writefile{lot}{\select@language{croatian}}
\@writefile{toc}{\contentsline {chapter}{\numberline {1}Uvod}{1}}
\@writefile{lof}{\addvspace {10\p@ }}
\@writefile{lot}{\addvspace {10\p@ }}
\@writefile{toc}{\contentsline {chapter}{\numberline {2}Duboko u\IeC {\v c}enje i tehnologije}{3}}
\@writefile{lof}{\addvspace {10\p@ }}
\@writefile{lot}{\addvspace {10\p@ }}
\@writefile{toc}{\contentsline {section}{\numberline {2.1}Osnove dubokog u\IeC {\v c}enja}{3}}
\@writefile{toc}{\contentsline {section}{\numberline {2.2}Tensorflow}{4}}
\@writefile{toc}{\contentsline {section}{\numberline {2.3}Keras}{4}}
\@writefile{toc}{\contentsline {chapter}{\numberline {3}Neuronske mre\IeC {\v z}e i slojevi}{5}}
\@writefile{lof}{\addvspace {10\p@ }}
\@writefile{lot}{\addvspace {10\p@ }}
\@writefile{toc}{\contentsline {chapter}{\numberline {4}Web aplikacija}{6}}
\@writefile{lof}{\addvspace {10\p@ }}
\@writefile{lot}{\addvspace {10\p@ }}
\@writefile{toc}{\contentsline {section}{\numberline {4.1}Django}{6}}
\@writefile{toc}{\contentsline {section}{\numberline {4.2}Programski kod i obje\IeC {\v s}njenje stranice}{6}}
\bibdata{literatura.bib}
\@writefile{toc}{\contentsline {chapter}{\numberline {5}Zaklju\IeC {\v c}ak}{7}}
\@writefile{lof}{\addvspace {10\p@ }}
\@writefile{lot}{\addvspace {10\p@ }}
\bibcite{HK}{{1}{2002}{{Downes}}{{}}}
\bibcite{HS}{{2}{}{{Oetiket et~al.}}{{Oetiket, Partl, Hyna, i Schlegl}}}
\bibstyle{fer}
\@writefile{toc}{\contentsline {chapter}{Literatura}{8}}
