This is BibTeX, Version 0.99d (TeX Live 2015/Debian)
Capacity: max_strings=35307, hash_size=35307, hash_prime=30011
The top-level auxiliary file: zavrsni.aux
The style file: fer.bst
Database file #1: literatura.bib.bib
Warning--empty year in HS
You've used 2 entries,
            2773 wiz_defined-function locations,
            606 strings with 5179 characters,
and the built_in function-call counts, 774 in all, are:
= -- 59
> -- 49
< -- 1
+ -- 17
- -- 15
* -- 60
:= -- 131
add.period$ -- 6
call.type$ -- 2
change.case$ -- 9
chr.to.int$ -- 2
cite$ -- 5
duplicate$ -- 38
empty$ -- 59
format.name$ -- 17
if$ -- 149
int.to.chr$ -- 1
int.to.str$ -- 1
missing$ -- 2
newline$ -- 18
num.names$ -- 8
pop$ -- 28
preamble$ -- 1
purify$ -- 9
quote$ -- 0
skip$ -- 25
stack$ -- 0
substring$ -- 4
swap$ -- 3
text.length$ -- 0
text.prefix$ -- 0
top$ -- 0
type$ -- 17
warning$ -- 1
while$ -- 6
width$ -- 0
write$ -- 31
(There was 1 warning)
